<svg width="16" height="16" viewBox="0 0 16 16" fill="none" xmlns="http://www.w3.org/2000/svg">
<g id="md-down-arrow-minimal">
<g id="Rectangle 88 + Path 146">
<path id="Rectangle 88" d="M13.1569 6.93645L7.65686 12.4364L2.21846 6.99805" stroke="#2B2B2B"/>
</g>
</g>
</svg>
