<svg width="12" height="12" viewBox="0 0 12 12" fill="none" xmlns="http://www.w3.org/2000/svg">
<g id="sm-down-arrow-minimal">
<g id="Group">
<path id="Vector" d="M3 5L6 8L9 5" stroke="#2B2B2B"/>
</g>
</g>
</svg>
